<svg xmlns="http://www.w3.org/2000/svg" viewBox="0 0 30 30">
  <g fill="#396FA7" stroke="#396FA7">
    <path d="M25.039062 4.210938c-1.433593-.730469-2.859374-.796876-2.921874-.800782H19.8125v-.023437c0-1.3125-.625-2.355469-1.761719-2.933594C17.261719.046875 16.488281.00390625 16.40625 0h-2.8125c-.082031.00390625-.855469.046875-1.644531.453125C10.8125 1.03125 10.1875 2.074219 10.1875 3.386719v.023437H7.882812c-.0625 0-1.488281.070313-2.921874.800782-1.386719.707031-3.035157 2.160156-3.035157 5.078124 0 .46875.378907.851563.851563.851563h.746094L6.8125 29.292969c.070312.410156.421875.707031.835938.707031h14.703124c.414063 0 .765626-.296875.835938-.707031l3.289062-19.152344h.746094c.472656 0 .851563-.382813.851563-.851563 0-2.917968-1.648438-4.371093-3.035157-5.078124zM3.695312 8.4375c.207032-1.199219.875-2.101562 1.992188-2.6875 1.042969-.546875 2.125-.632812 2.253906-.640625h14.117188c.128906.007813 1.179687.09375 2.207031.617187 1.144531.585938 1.828125 1.496094 2.039063 2.710938zm8.191407-5.050781c0-.664063.253906-1.109375.796875-1.398438.433594-.234375.898437-.28125.972656-.289062h2.683594c.085937.007812.546875.054687.976562.289062.542969.289063.796875.734375.796875 1.398438v.023437h-6.226562v-.023437zm9.746093 24.914062H8.367188L5.25 10.140625h19.5zm0 0"/>
    <path d="M15 25.46875c.46875 0 .851562-.378906.851562-.851562V12.644531c0-.472656-.382812-.851562-.851562-.851562-.46875 0-.851562.378906-.851562.851562v11.972657c0 .472656.382812.851562.851562.851562zm0 0M9.988281 24.695312c.039063.441407.410157.773438.847657.773438.023437 0 .050781 0 .074218-.003906.46875-.039063.816406-.453125.773438-.921875l-1.0625-11.976563c-.042969-.46875-.453125-.8125-.921875-.769531-.46875.039063-.816407.453125-.773438.921875zm0 0M19.089844 25.464844c.023437.003906.050781.003906.074218.003906.4375 0 .808594-.332031.847657-.773438l1.0625-11.976562c.042969-.46875-.304688-.882812-.773438-.921875-.464843-.042969-.878906.300781-.921875.769531l-1.0625 11.976563c-.042968.46875.304688.882812.773438.921875zm0 0"/>
  </g>
</svg>





